[
    {
        "id": 1,
        "uuid": "uzbekistan-nijniy-novgorod",
        "title": "Uzbekistan Airways приступает к выполнению регулярных рейсов между Самаркандом и Нижним Новгородом",
        "date": "29 апреля 2024",
        "desc": "Самарканд и Нижний Новгород становятся ближе! Начиная с 9 мая Uzbekistan Airways приступает к выполнению еженедельных рейсов по четвергам по маршруту Самарканд – Нижний Новгород – Самарканд. ",
        "body": "<p><em>Самарканд и Нижний Новгород становятся ближе! Начиная с 9 мая Uzbekistan Airways приступает к выполнению еженедельных рейсов по четвергам по маршруту Самарканд &ndash; Нижний Новгород &ndash; Самарканд.</em></p><p>Нижний Новгород, расположенный на берегах Волги и Оки, является одним из древнейших и красивейших городов России, а исторический центр города входит в список Всемирного наследия ЮНЕСКО. Одной из самых известных достопримечательностей города является Нижегородская крепость, основанная в 1221 году. Культурная жизнь Нижнего Новгорода богата и разнообразна. В городе находится множество музеев, галерей и театров. Одним из самых популярных мест среди туристов является 'Парк Швейцария', расположенный на берегу Волги, где можно насладиться красотой природы и отдохнуть от городской суеты.</p><p><img style='display: block; margin-left: auto; margin-right: auto;' src='https://podrobno.uz/upload/medialibrary/556/zngs5k287ox6te19mzivb1386mfa1uwl/podrobno-_2_.jpg' alt='подробно (2).jpg' width='504' height='336'></p><p>Рейсы HY677/678 выполняются каждый четверг, согласно следующему расписанию полетов:</p><ul><li><p>вылет из Самарканда в 9:20, время по Самарканду;</p></li><li><p>прилет в Нижний Новгород в 11:10, время по Нижнему Новгороду;</p></li><li><p>вылет из Нижнего Новгорода в 12:30, время по Нижнему Новгороду;</p></li><li><p>прилет в Самарканд в 18:00, время по Самарканду.</p></li></ul><p>Нижний Новгород &mdash; это удивительный город, сочетающий в себе богатую историю, красивую архитектуру и разнообразные возможности для отдыха и развлечений.</p><p>Авиабилеты в поразительный Нижний Новгород можно приобрести по стоимости от 1 810 000 сумов в одну сторону, а по маршруту Самарканд &ndash; Нижний Новгород &ndash; Самарканд &ndash; от 2 371 000 сумов. Авиабилеты доступны на сайте <a href='http://www.uzairways.com/' target='_blank' rel='noopener'>www.uzairways.com</a>, в приложении авиакомпании, в филиале Uzbekistan Airways Sales или у агентов авиакомпании.</p>",
        "image": "/data/news/uzbekistan-nijniy-novgorod/1.jpeg"
    },
    {
        "id": 2,
        "uuid": "jiteli-puteshestvuyut",
        "title": "Жители Узбекистана стали путешествовать в 2 раза чаще",
        "date": "21 марта 2024",
        "desc": "В январе-феврале текущего года за границей побывали 850 тысяч туристов из Узбекистана, что почти в 2 раза больше по сравнению с таким же периодом прошлого года, передает корреспондент Podrobno.uz. ",
        "body": "<p><strong>Узбекистан, Ташкент &ndash; АН Podrobno.uz.</strong>В январе-феврале текущего года за границей<a href='https://stat.uz/ru/press-tsentr/novosti-goskomstata/52191-turistik-maqsadlarda-chet-elga-ketgan-o-zbekiston-fuqarolari-qanchani-tashkil-etdi-2' target='_blank' rel='noopener'>побывали</a>850 тысяч туристов из Узбекистана, что почти в 2 раза больше по сравнению с таким же периодом прошлого года, передает корреспондент Podrobno.uz.</p><p>На такой масштабный рост могло повлиять и число стран, в которые узбекистанцы могут въехать без визы.</p><p>Узбекистан, по<a href='https://cdn.henleyglobal.com/ru/storage/app/media/HPI/2024/Henley_Passport_Index_2024_Q1_Russian_240105.pdf' target='_blank' rel='noopener'>данным</a>компании Henley &amp; Partners,за последние 5 лет поднялся в рейтинге паспортов по количеству доступных безвизовых направлений с 85 на 80 позицию.</p><p>За первые два месяца года чаще всего узбекистанцы посещали:</p<ul><li><p>Кыргызстан &ndash; 374,2 тысячи;</p></li><li><p>Таджикистан &ndash; 178,5 тысячи;</p></li><li><p>Казахстан &ndash; 117,3 тысячи;</p></li><li><p>Саудовская Аравия &ndash; 51,3 тысячи;</p></li><li><p>Россия &ndash; 33,6 тысячи;</p></li><li><p>ОАЭ &ndash; 26,2 тысячи;</p></li><li><p>Турция &ndash; 23,5 тысячи;</p></li><li><p>Кувейт &ndash; 8,9 тысячи;</p></li><li><p>Египет &ndash; 5,4 тысячи;</p></li><li><p>Таиланд &ndash; 4,7 тысячи;</p></li><li><p>другие страны &ndash; 26,4 тысячи.</p></li></ul<p>При этом приоритетным направлением для жителей страны остается внутренний туризм.</p><p><a href='https://podrobno.uz/cat/podrobno/keshbek-plyazhi-i-nochnoy-dvizh-v-uzbekistane-utverdili-ryad-mer-po-razvitiyu-vnutrennego-turizma-/?sphrase_id=7718956' target='_blank' rel='noopener'>Напомним</a>, что туристы могут возместить через специальную платформу на свою банковскую карту по окончании внутреннего путешествия:</p<ul><li><p>15 процентов от суммы авиабилета в обе стороны при путешествии авиасообщением, но не более 150 тысяч сумов;</p></li><li><p>15 процентов от суммы билета в обе стороны при путешествии железнодорожным транспортом или на автобусе, но не более 80 тысяч сумов;</p></li><li><p>15 процентов от суммы расходов при ночевке в средствах размещения, но не более 80 тысяч сумов;</p></li><li><p>50 процентов от суммы каждого посещения театров, музеев, цирков и художественных галерей, но не более 20 тысяч сумов.</p></li></ul>",
        "image": "/data/news/jiteli-puteshestvuyut/1.jpeg"
    },
    {
        "id": 3,
        "uuid": "populyarnoe-napravlenie",
        "title": "С сегодняшнего дня узбекистанцам не нужна виза для посещения ОАЭ",
        "date": "16 февраля 2024,",
        "desc": "Узбекистан, Ташкент – АН Podrobno.uz. Сегодня вступает в силу протокол между правительствами Узбекистана и ОАЭ о взаимном освобождении от виз, сообщает корреспондент Podrobno.uz. ",
        "body": "<p><strong>Узбекистан, Ташкент &ndash; АН Podrobno.uz.</strong>Сегодня вступает в силу протокол между правительствами Узбекистана и ОАЭ о взаимном освобождении от виз, сообщает корреспондент Podrobno.uz.</p><p>Согласно документу, с 16 февраля 2024 года граждане Узбекистана могут въезжать на территорию Объединенных Арабских Эмиратов без получения визы на срок до 30 дней.</p><p><a href='https://podrobno.uz/cat/politic/oae-otmenili-vizu-dlya-grazhdan-uzbekistana/' target='_blank' rel='noopener'>Напомним</a>, 16 января текущего года посол Узбекистана Абдулазиз Аккулов и заместитель министра иностранных дел ОАЭ Халид Абдулла Белхул подписали протокол о взаимном освобождении от въездных виз.</p><p>Теперь граждане Узбекистана без оформления визы могут посещать до 29 стран, тем самым в мировом рейтинге силы паспортов 'Passport Index' наша страна занимает 69-е место.</p><p><a href='https://podrobno.uz/cat/obchestvo/voditelskie-prava-uzbekistana-budut-deystvovat-na-territorii-oae/?sphrase_id=7706799' target='_blank' rel='noopener'>Напомним</a>, в декабре прошлого года Узбекистан и ОАЭ договорились о взаимном признании водительских удостоверений.</p>",
        "image": "/data/news/populyarnoe-napravlenie/1.jpeg"
    },
    {
        "id": 4,
        "uuid": "buxara-unesco",
        "title": "Бухара вошла в Сеть творческих городов ЮНЕСКО",
        "date": "12 февраля 2024",
        "desc": "Во Всемирный день городов, 31 октября 2023 года, генеральный директор ЮНЕСКО Одри Азуле объявила о включении 55 городов в Сеть творческих городов (UCCN), сообщает сайт ЮНЕСКО. ",
        "body": "<p>Во Всемирный день городов, 31 октября 2023 года, генеральный директор ЮНЕСКО Одри Азуле объявила о включении 55 городов в Сеть творческих городов (UCCN), сообщает сайт ЮНЕСКО. Бухара стала первым городом Узбекистана, включенным в эту международную программу. Город попал в список за приверженность культуре в области ремесел и народного творчества. Кроме того, в 2025 году в Бухаре состоится первая Биеннале современного дизайна и ремесел.</p><p>Всего креативных направлений в Сети творческих городов ЮНЕСКО семь: гастрономия, ремесла и народное творчество, музыка, дизайн, литература, кино и медиа-искусство.</p><p>ЮНЕСКО будет поддерживать развитие диалога и сотрудничества между городами-участниками для обмена опытом и использования творческого потенциала. Все это нужно для повышения уровня участия в культурной жизни городов, которая влияет на экономику и социальное развитие. Среди новых городов, включенных в программу, также отмечены Ашхабад (вошел в список по направлению дизайна), Кутаиси (литература) и Великий Новгород (музыка).</p><p>Всего в Сети творческих городов, которая действует с 2004 года, находятся 350 городов из более 100 стран мира. Включение новых городов происходит один раз в два года. Среди городов-участников - Баку, Тбилиси, Батуми, Алматы, Санкт-Петербург, Ульяновск и Казань.</p>",
        "image": "/data/news/buxara-unesco/1.jpeg"
    },
    {
        "id": 5,
        "uuid": "sahxrisabz-tur-stolitsa",
        "title": "Шахрисабз стал туристической столицей ОЭС в 2024 году",
        "date": "26 апреля 2024",
        "desc": "В связи с этим в одном из древнейших городов Узбекистана, имеющим большой турпотенциал, начали проходить международные мероприятия.",
        "body": "<p>В связи с этим в одном из древнейших городов Узбекистана, имеющим большой турпотенциал, начали проходить международные мероприятия.</p><p>ТАШКЕНТ, 26 апр &mdash; Sputnik. Шахрисабз стал туристической столицей Организации экономического сотрудничества в 2024 году. В рамках международного мероприятия, посвященного этому событию, состоялась пресс-конференция для представителей СМИ, сообщает корреспондент Sputnik Узбекистан.</p><p>'Шахрисабз во всех отношениях заслуживает такого признания. Исторически на протяжении тысячелетий он был одним из основных центров Великого шелкового пути. Именно здесь пересекались торговые пути, культуры, верования, передовые идеи. Шахрисабз &mdash; один из центров уникального материального культурного наследия Узбекистана. Это было признано и ЮНЕСКО: 'Исторический центр Шахрисабза' был включен в Список всемирного наследия в 2000 году', &mdash; отметил председатель комитета по туризму Умид Шадиев.</p<p><img style='display: block; margin-left: auto; margin-right: auto;' src='/data/news/sahxrisabz-tur-stolitsa/2.webp' alt='Шахрисабз стал туристической столицей Организации экономического сотрудничества в 2024 году - Sputnik Узбекистан, 1920, 26.04.2024' width='602' height='451'></p><p>Журналистам рассказали о совершенствовании туристической инфраструктуры Шахрисабза и всей Кашкадарьинской области, наращивании потенциала в экотуризме, этнотуризме и других сферах, культурных мероприятиях, раскрывающих нематериальное наследие региона, туристическом предпринимательстве.</p><blockquote>'Большинство туристов посещают Самарканд, Хиву и Бухару, но мы хотим открыть такие жемчужины Узбекистана как Шахрисабз и вся Кашкадарьинская область. А также презентовать не только памятники культуры, но и нематериальное культурное наследие, в частности уникальную гастрономию', &mdash; отметил Умид Шадиев.</blockquote><p>В связи с приданием одному из древнейших городов Узбекистана нового статуса, в нем начали проходить международные мероприятия.</p><p>В их числе выставка, посвященная итогам 'пленэра' с участием ведущих художников стран-членов ОЭС. Он организован по инициативе комитета по туризму с 27 марта по 6 апреля.<br>Также состоялся международный гастрономический фестиваль 'Шахрисабзский кулинарный поединок' с участием более 30 известных шеф-поваров из стран-членов ОЭС. Они представили национальные блюда своих стран.</p><p>26 апреля в древнем Кеше, как еще называют Шахрисабз, пройдут совещание по подготовке к созданию Консультативного комитета по туризму при Секретариате ОЭС, форум 'Туризм без границ на пространстве ОЭС' и торжественная церемония присвоения городу нового статуса.<br>В числе других мероприятий:</p><ul><li>конкурс 'Modest fashion show' среди молодых дизайнеров стран ОЭС;</li><li>первые международные этноспортивные игры стран ОЭС;</li><li>фестиваль 'International folk' с участием фольклорных коллективов стран ОЭС</li></ul><p>Кроме того, с 1 мая в Шахрисабзе планируют открыть гражданский аэропорт, внутренние рейсы будет выполнять авиакомпания Silk Avia.</p><p>Самолеты будут летать прежде всего в туристические центры &mdash; Самарканд, Бухару, Хиву, Ташкент.</p><blockquote>'Это связано с тем, что поток туристов ежегодно увеличивается, поэтому решено разгрузить железнодорожный и автотранспорт', &mdash; рассказал корреспонденту Sputnik Узбекистан заместитель хокима Кашкадарьинской области по вопросам туризма Алишер Закиров.</blockquote><p>Напомним, что в прошлом году туристической столицей ОЭС был иранский город Ардебиль.</p><p>Для справки: решение о присвоении Шахрисабзу статуса туристической столицы Организации экономического сотрудничества в 2024 году приняли на IV совещании министров туризма государств-членов Организации экономического сотрудничества (ОЭС) в декабре 2022-го.</p>",
        "image": "/data/news/sahxrisabz-tur-stolitsa/1.webp"
    },
    {
        "id": 6,
        "uuid": "turisti-uvelichilis",
        "title": "Количество внутренних туристов за год увеличилось в 2 раза",
        "date": "28 апреля 2024",
        "desc": "Под председательством президента Шавката Мирзиёева состоялось видеоселекторное совещание по вопросам полного использования потенциала туристических и культурных объектов, организации осеннего сезона общенационального проекта «Яшил макон».",
        "body": "<p dir='auto'>Туризм сегодня является одним из важных драйверов экономики. Поэтому каждая страна старается привлечь больше туристов. В результате создания широких возможностей в этой сфере в нашей стране увеличивается количество гостевых, объектов и маршрутов туризма.</p><p dir='auto'>За последние 8 месяцев Узбекистан посетили 4,3 миллиона туристов, поступления от их пребывания составили 1,4 миллиарда долларов. В результате введения дополнительных выходных дней и скидок количество внутренних туристов достигло 15 миллионов, что в 2 раза больше, чем в прошлом году.</p><p dir='auto'>Туристическая инфраструктура последовательно развивается. В этом году создано 15 тысяч новых мест гостевого размещения, а их количество достигло 137 тысяч. Построено 540 рекреационных и развлекательных объектов, открыто 70 туристических маршрутов.</p><p dir='auto'>Также начали работу 6 частных авиакомпаний, привезено 23 новых самолета, запущено 20 международных и 6 внутренних рейсов. Международные рейсы в аэропорту Самарканда увеличились с 46 до 85 в неделю. Закуплено 1,3 тысячи современных автобусов и открыто 38 маршрутов.</p><p dir='auto'>На совещании обсуждены новые возможности для наращивания потока туристов.</p><p dir='auto'>Прежде всего отмечено наличие больших возможностей для привлечения туристов из ближнего зарубежья, России и Китая. В частности, регионы нашей страны наладили партнерские связи с китайскими провинциями. Указано на возможность продвижения туристического потенциала наших регионов и привлечения 1 миллиона китайских туристов в год.</p><p dir='auto'>Увеличился и приток туристов из дальнего зарубежья. Так, количество туристов из Индии, Японии, США и Италии увеличилось в 3-4 раза. Один только Хорезм посетили 40 тысяч туристов из Испании. Но они расходуют на дорогу больше средств, так как прибывают через третьи страны. Если наладить прямые авиарейсы из Мадрида, по оценкам туроператоров, поток туристов из Испании можно увеличить в 4 раза.</p><p dir='auto'>В связи с этим Министерству транспорта поручено совместно с послами за рубежом принять меры по расширению географии авиарейсов.</p><p dir='auto'>На совещании обсуждена работа в рамках общенационального проекта &laquo;Яшил макон&raquo;.</p><p dir='auto'>За 2 года, прошедшие с момента организации данного движения, было заложено более 1,2 тысячи гектаров зеленых садов и общественных парков, более 1 миллиона гектаров зеленых зон и дорожек. В целом в обществе и у ответственных лиц изменилось отношение к деревьям, отмечалось на совещании.</p>",
        "image": "/data/news/turisti-uvelichilis/1.jpeg"
    },
    {
        "id": 7,
        "uuid": "adele-concert",
        "title": "Эксклюзивный тур на концерт Адель: Погрузитесь в магию музыки",
        "date": "14 август 2024",
        "desc": "Приглашаем вас отправиться в музыкально-культурное путешествие, которое оставит незабываемые впечатления! Присоединяйтесь к нашему эксклюзивному авторскому туру на концерт Адель в Мюнхене, дополненному посещением очаровательных городов Цюриха, Парижа, Рима и Милана.",
        "body": "<h3 style=\"text-align: center\">Приглашаем вас отправиться в музыкально-культурное путешествие, которое оставит незабываемые впечатления! Присоединяйтесь к нашему эксклюзивному авторскому туру на концерт Адель в Мюнхене, дополненному посещением очаровательных городов Цюриха, Парижа, Рима и Милана.</h3><img src=\"/data/news/adele-concert/item-2.jpg\" alt=\"adele\" /><h4 style=\"text-align: center\">Мы понимаем, что у каждого путешественника есть свои предпочтения и бюджет, поэтому мы создали 3 пакета на выбор:</h4><h4>✨Пакет \"Стандарт\" на 6 ночей/7 дней</h4><p>- С 15.08.2024 по 21.08.2024 посещение трех городов Мюнхен, Цюрих, Париж</p><p>- Проживание в комфортабельных отелях 4*</p><p>- Все трансферы и переезды по программе</p><p>- Билет на концерт Адель</p><p></p><h3>✨Пакет \"Комфорт\" 8 ночей / 9 дней</h3><p>- С 15.08.2024 по 23.08.2024 посещение трех городов Мюнхен, Цюрих, Париж и Милан</p><p>- Проживание в комфортабельных отелях 4*</p><p>- Все трансферы и переезды по программе</p><p>- Билет на концерт Адель</p><p></p><h3>✨Пакет \"Люкс\" 10 ночей / 11 дней</h3><p>- С 15.08.2024 по 25.08.2024 посещение трех городов Мюнхен, Цюрих, Париж, Милан и Рима</p><p>- Проживание в комфортабельных отелях 4*</p><p>- Все трансферы и переезды по программе</p><p>- Билет на концерт Адель</p><p></p><h3 style=\"text-align: center\">‼️Стоимость тура зависит от выбранного пакета и являются динамичными ‼️</h3><a href=\"/data/news/adele-concert/Adele-6.xlsx\" download>Адель программа (6-дней) - Special<span style=\"font-size: 12px; color: #000; opacity: 0.5; margin: 0 10px\">скачать</span></a><a href=\"/data/news/adele-concert/Adele-8.xlsx\" download>Адель программа (8-дней) - Special+<span style=\"font-size: 12px; color: #000; opacity: 0.5; margin: 0 10px\">скачать</span></a><a href=\"/data/news/adele-concert/Adele-10.xlsx\" download>Адель программа (10-дней) - VIP<span style=\"font-size: 12px; color: #000; opacity: 0.5; margin: 0 10px\">скачать</span></a><h3 style=\"text-align: center\">💫Не упустите возможность отправиться в это неповторимое путешествие!</h3><img src=\"/data/news/adele-concert/item-3.jpg\" alt=\"adele\" /><h3 style=\"text-align: center\">💫Свяжитесь с нами сегодня, чтобы забронировать свое место в нашем эксклюзивном авторском туре на концерт Адель в Мюнхене.</h3><h3 style=\"text-align: center\">☄️Вас ждут незабываемые впечатления, которые останутся с вами на всю жизнь!</h3>",
        "image": "/data/news/adele-concert/item-1.jpg"
    },
    {
        "id": 8,
        "uuid": "qatar-formula1",
        "title": "Катар Гран-при Формулы-1 для тех, кто всё планирует наперёд",
        "date": "5 октября 2024",
        "desc": "Формула-1 в Катаре – это настоящий праздник для любителей гонок. Гонка проходит на Международной трассе Лусаила – впервые Гран-При Формула-1 прошел на этой трассе в 2021 году. Гостей ожидают три дня увлекательных гонок и многочисленные развлечения!",
        "body": "<h3 style=\"text-align: center\">Формула-1 в Катаре – это настоящий праздник для любителей гонок. Гонка проходит на Международной трассе Лусаила – впервые Гран-При Формула-1 прошел на этой трассе в 2021 году. Гостей ожидают три дня увлекательных гонок и многочисленные развлечения! Тур с билетами на Главную Трибуну (Main Grandstand).</h3><img src=\"/data/news/qatar-formula1/item-2.jpg\" alt=\"formula 1\" /><h3 style=\"text-align: center\">Очередной этап Формулы-1 пройдет в Катаре с 6 по 8 октября Qatar Grand Prix 2023.</h3><h4>Эксклюзивные пакеты на Qatar Grand Prix 2023 включают:</h4><p>- проживание в выбранном отеле</p><p>- доступ на все события в течение 3х – дней</p><p>- бесплатный доступ Женевский международный автосалон</p><p>- за доп.плату экскурсии и трансферы</p><h3>✨ Расписание:</h3><h4>6 октября, пятница</h4><p>- 16:30 – 19:30 тренировка</p><p>- 20:00 – 21:00 квалификационный заезд</p><h4>7 октября, суббота</h4><p>16:30 – 19:30 тренировка</p><p>20:30 – 21:00 спринтерская гонка (Sprint Race)</p><h4>8 октября, воскресенье</h4><p>- 20:00 – гонка</p><img src=\"/data/news/qatar-formula1/item-3.jpg\" alt=\"formula 1\" /><h3 style=\"text-align: center\">Оставьте заявку на нашем сайте для бронирования туров на Гран-При Формулы-1</h3>",
        "image": "/data/news/qatar-formula1/item-1.jpg"
    }
]
